kornel_kovacs_hw_4
…
## -- Conflicts ------------------------------------------------ tidyverse_conflicts() --
## x dplyr::filter() masks stats::filter()
## x dplyr::lag()    masks stats::lag()

Narrow the tibble to see what mutate() is doing

(flights_small <- select(flights,
                        year:day, 
                        ends_with("delay"), 
                        distance,
                        air_time))

## # A tibble: 336,776 x 7
##     year month   day dep_delay arr_delay distance air_time
##    <int> <int> <int>     <dbl>     <dbl>    <dbl>    <dbl>
##  1  2013     1     1         2        11     1400      227
##  2  2013     1     1         4        20     1416      227
##  3  2013     1     1         2        33     1089      160
##  4  2013     1     1        -1       -18     1576      183
##  5  2013     1     1        -6       -25      762      116
##  6  2013     1     1        -4        12      719      150
##  7  2013     1     1        -5        19     1065      158
##  8  2013     1     1        -3       -14      229       53
##  9  2013     1     1        -3        -8      944      140
## 10  2013     1     1        -2         8      733      138
## # ... with 336,766 more rows

mutate(flights_small, 
       catchup = dep_delay - arr_delay,
       speed_miles = (distance/air_time) * 60
       )

## # A tibble: 336,776 x 9
##     year month   day dep_delay arr_delay distance air_time catchup
##    <int> <int> <int>     <dbl>     <dbl>    <dbl>    <dbl>   <dbl>
##  1  2013     1     1         2        11     1400      227      -9
##  2  2013     1     1         4        20     1416      227     -16
##  3  2013     1     1         2        33     1089      160     -31
##  4  2013     1     1        -1       -18     1576      183      17
##  5  2013     1     1        -6       -25      762      116      19
##  6  2013     1     1        -4        12      719      150     -16
##  7  2013     1     1        -5        19     1065      158     -24
##  8  2013     1     1        -3       -14      229       53      11
##  9  2013     1     1        -3        -8      944      140       5
## 10  2013     1     1        -2         8      733      138     -10
## # ... with 336,766 more rows, and 1 more variable: speed_miles <dbl>

Magic numbers. Great, every one loves them. They are evil.

KM_PER_MILE <- 1.61
mutate(flights_small,
       speed_km = (distance * KM_PER_MILE/air_time) * 60)

## # A tibble: 336,776 x 8
##     year month   day dep_delay arr_delay distance air_time speed_km
##    <int> <int> <int>     <dbl>     <dbl>    <dbl>    <dbl>    <dbl>
##  1  2013     1     1         2        11     1400      227     596.
##  2  2013     1     1         4        20     1416      227     603.
##  3  2013     1     1         2        33     1089      160     657.
##  4  2013     1     1        -1       -18     1576      183     832.
##  5  2013     1     1        -6       -25      762      116     635.
##  6  2013     1     1        -4        12      719      150     463.
##  7  2013     1     1        -5        19     1065      158     651.
##  8  2013     1     1        -3       -14      229       53     417.
##  9  2013     1     1        -3        -8      944      140     651.
## 10  2013     1     1        -2         8      733      138     513.
## # ... with 336,766 more rows

Even nicer is to create intermediate results for clarity

mutate(flights_small,
       distance_km = distance * KM_PER_MILE,
       air_time_hours = air_time / 60,
       speed_km = distance_km / air_time_hours
       )

## # A tibble: 336,776 x 10
##     year month   day dep_delay arr_delay distance air_time distance_km
##    <int> <int> <int>     <dbl>     <dbl>    <dbl>    <dbl>       <dbl>
##  1  2013     1     1         2        11     1400      227       2254 
##  2  2013     1     1         4        20     1416      227       2280.
##  3  2013     1     1         2        33     1089      160       1753.
##  4  2013     1     1        -1       -18     1576      183       2537.
##  5  2013     1     1        -6       -25      762      116       1227.
##  6  2013     1     1        -4        12      719      150       1158.
##  7  2013     1     1        -5        19     1065      158       1715.
##  8  2013     1     1        -3       -14      229       53        369.
##  9  2013     1     1        -3        -8      944      140       1520.
## 10  2013     1     1        -2         8      733      138       1180.
## # ... with 336,766 more rows, and 2 more variables: air_time_hours <dbl>,
## #   speed_km <dbl>

transmute only keeps new variables

transmute(flights_small,
       distance_km = distance * KM_PER_MILE,
       air_time_hours = air_time / 60,
       speed_km = distance_km / air_time_hours
       )

## # A tibble: 336,776 x 3
##    distance_km air_time_hours speed_km
##          <dbl>          <dbl>    <dbl>
##  1       2254           3.78      596.
##  2       2280.          3.78      603.
##  3       1753.          2.67      657.
##  4       2537.          3.05      832.
##  5       1227.          1.93      635.
##  6       1158.          2.5       463.
##  7       1715.          2.63      651.
##  8        369.          0.883     417.
##  9       1520.          2.33      651.
## 10       1180.          2.3       513.
## # ... with 336,766 more rows

You cannot use all transformations inside mutate. It has to be vectorized: it takes a vector and returns a vector of the same length The reason (I believe) is that the operation is done on the column as a whole, For this the operation needs to make sense for a whole column, not just for one number

SOME VECTORIZED OPERATIONS

transmute(flights,
          dep_time,
          dep_hour = dep_time %/% 100,
          dep_minutes = dep_time %% 100
          )

## # A tibble: 336,776 x 3
##    dep_time dep_hour dep_minutes
##       <int>    <dbl>       <dbl>
##  1      517        5          17
##  2      533        5          33
##  3      542        5          42
##  4      544        5          44
##  5      554        5          54
##  6      554        5          54
##  7      555        5          55
##  8      557        5          57
##  9      557        5          57
## 10      558        5          58
## # ... with 336,766 more rows
…
kk <- function(x) { x[3]}
kk(1:5) # not vectorized

## [1] 3

mean(x)

## [1] 4.5

What happens when we try this on a dataframe

transmute(flights, delay = mean(arr_delay, na.rm = TRUE))

## # A tibble: 336,776 x 1
##    delay
##    <dbl>
##  1  6.90
##  2  6.90
##  3  6.90
##  4  6.90
##  5  6.90
##  6  6.90
##  7  6.90
##  8  6.90
##  9  6.90
## 10  6.90
## # ... with 336,766 more rows

transmute(flights, delay = kk(arr_delay))

## # A tibble: 336,776 x 1
##    delay
##    <dbl>
##  1    33
##  2    33
##  3    33
##  4    33
##  5    33
##  6    33
##  7    33
##  8    33
##  9    33
## 10    33
## # ... with 336,766 more rows

Exercise: Try out a few of the other commands in the chapter.(KK: Which chapter exactly? I tried some arbitrarily.)

transmute(flights, real_delay = sched_arr_time - arr_time)

## # A tibble: 336,776 x 1
##    real_delay
##         <int>
##  1        -11
##  2        -20
##  3        -73
##  4         18
##  5         25
##  6        -12
##  7        -59
##  8         14
##  9          8
## 10         -8
## # ... with 336,766 more rows
…
Do the following exercises from 5.5.2:

Exercise 1

transmute(flights,
          dep_time,
          dep_hour = dep_time %/% 100,
          dep_minutes = dep_time %% 100
          )

## # A tibble: 336,776 x 3
##    dep_time dep_hour dep_minutes
##       <int>    <dbl>       <dbl>
##  1      517        5          17
##  2      533        5          33
##  3      542        5          42
##  4      544        5          44
##  5      554        5          54
##  6      554        5          54
##  7      555        5          55
##  8      557        5          57
##  9      557        5          57
## 10      558        5          58
## # ... with 336,766 more rows

Exercise 2

transmute(flights,
          air_time = arr_time - dep_time,
          arr_time,
          dep_time
          )

## # A tibble: 336,776 x 3
##    air_time arr_time dep_time
##       <int>    <int>    <int>
##  1      313      830      517
##  2      317      850      533
##  3      381      923      542
##  4      460     1004      544
##  5      258      812      554
##  6      186      740      554
##  7      358      913      555
##  8      152      709      557
##  9      281      838      557
## 10      195      753      558
## # ... with 336,766 more rows
…
Not the same!

flights$dep_delay
select(flights, dep_delay)

Still, summarise is way more interesting with its friend, group_by

by_day <- group_by(flights, year, month, day)
summarise(
  group_by(flights, year, month, day), 
  delay = mean(dep_delay, na.rm = TRUE)
  )

## # A tibble: 365 x 4
## # Groups:   year, month [12]
##     year month   day delay
##    <int> <int> <int> <dbl>
##  1  2013     1     1 11.5 
##  2  2013     1     2 13.9 
##  3  2013     1     3 11.0 
##  4  2013     1     4  8.95
##  5  2013     1     5  5.73
##  6  2013     1     6  7.15
##  7  2013     1     7  5.42
##  8  2013     1     8  2.55
##  9  2013     1     9  2.28
## 10  2013     1    10  2.84
## # ... with 355 more rows

Again, not the same structure.

by_destination <- group_by(flights, dest)
delay <- summarise(by_destination,
                   delay = mean(arr_delay, na.rm = TRUE))

OK, we need the distance too, or else there is not much to plot.

(delay <- summarise(by_destination,
                   delay = mean(arr_delay, na.rm = TRUE),
                   distance = mean(distance, na.rm = TRUE)))

## # A tibble: 105 x 3
##    dest  delay distance
##    <chr> <dbl>    <dbl>
##  1 ABQ    4.38    1826 
##  2 ACK    4.85     199 
##  3 ALB   14.4      143 
##  4 ANC   -2.5     3370 
##  5 ATL   11.3      757.
##  6 AUS    6.02    1514.
##  7 AVL    8.00     584.
##  8 BDL    7.05     116 
##  9 BGR    8.03     378 
## 10 BHM   16.9      866.
## # ... with 95 more rows
…
(delay <- summarise(by_destination,
                    count = n(), 
                   delay = mean(arr_delay, na.rm = TRUE),
                   distance = mean(distance, na.rm = TRUE)))

## # A tibble: 105 x 4
##    dest  count delay distance
##    <chr> <int> <dbl>    <dbl>
##  1 ABQ     254  4.38    1826 
##  2 ACK     265  4.85     199 
##  3 ALB     439 14.4      143 
##  4 ANC       8 -2.5     3370 
##  5 ATL   17215 11.3      757.
##  6 AUS    2439  6.02    1514.
##  7 AVL     275  8.00     584.
##  8 BDL     443  7.05     116 
##  9 BGR     375  8.03     378 
## 10 BHM     297 16.9      866.
## # ... with 95 more rows
…
